%YAML 1.1
%TAG !u! tag:unity3d.com,2011:
--- !u!74 &7400000
AnimationClip:
  m_ObjectHideFlags: 0
  m_PrefabParentObject: {fileID: 0}
  m_PrefabInternal: {fileID: 0}
  m_Name: Sword idle
  serializedVersion: 4
  m_AnimationType: 2
  m_Compressed: 0
  m_UseHighQualityCurve: 1
  m_RotationCurves:
  - curve:
      serializedVersion: 2
      m_Curve:
      - time: 0
        value: {x: -1, y: -1.94707169e-07, z: -1.94707169e-07, w: -8.74228121e-08}
        inSlope: {x: 0, y: 0, z: 0, w: 0}
        outSlope: {x: 0, y: 0, z: 0, w: 0}
        tangentMode: -1
      - time: .0166666675
        value: {x: -1, y: -1.94707169e-07, z: -1.94707169e-07, w: -8.74228121e-08}
        inSlope: {x: 0, y: 0, z: 0, w: 0}
        outSlope: {x: 0, y: 0, z: 0, w: 0}
        tangentMode: -2
      - time: .0333333351
        value: {x: -1, y: -1.94707169e-07, z: -1.94707169e-07, w: -8.74228121e-08}
        inSlope: {x: 0, y: 0, z: 0, w: 0}
        outSlope: {x: 0, y: 0, z: 0, w: 0}
        tangentMode: -256
      - time: .0500000045
        value: {x: -1, y: -1.94707169e-07, z: -1.94707169e-07, w: -8.74228121e-08}
        inSlope: {x: 0, y: 0, z: 0, w: 0}
        outSlope: {x: 0, y: 0, z: 0, w: 0}
        tangentMode: 4
      - time: .0666666701
        value: {x: -1, y: -1.94707169e-07, z: -1.94707169e-07, w: -8.74228121e-08}
        inSlope: {x: 0, y: 0, z: 0, w: 0}
        outSlope: {x: 0, y: 0, z: 0, w: 0}
        tangentMode: 0
      - time: .0833333358
        value: {x: -1, y: -1.94707169e-07, z: -1.94707169e-07, w: -8.74228121e-08}
        inSlope: {x: 0, y: 0, z: 0, w: 0}
        outSlope: {x: 0, y: 0, z: 0, w: 0}
        tangentMode: -2
      - time: .100000001
        value: {x: -1, y: -1.94707169e-07, z: -1.94707169e-07, w: -8.74228121e-08}
        inSlope: {x: 0, y: 0, z: 0, w: 0}
        outSlope: {x: 0, y: 0, z: 0, w: 0}
        tangentMode: 15
      - time: .116666667
        value: {x: -1, y: -1.94707169e-07, z: -1.94707169e-07, w: -8.74228121e-08}
        inSlope: {x: 0, y: 0, z: 0, w: 0}
        outSlope: {x: 0, y: 0, z: 0, w: 0}
        tangentMode: -1
      - time: .13333334
        value: {x: -1, y: -1.94707169e-07, z: -1.94707169e-07, w: -8.74228121e-08}
        inSlope: {x: 0, y: 0, z: 0, w: 0}
        outSlope: {x: 0, y: 0, z: 0, w: 0}
        tangentMode: -256
      - time: .150000006
        value: {x: -1, y: -1.94707169e-07, z: -1.94707169e-07, w: -8.74228121e-08}
        inSlope: {x: 0, y: 0, z: 0, w: 0}
        outSlope: {x: 0, y: 0, z: 0, w: 0}
        tangentMode: 0
      - time: .166666672
        value: {x: -1, y: -1.94707169e-07, z: -1.94707169e-07, w: -8.74228121e-08}
        inSlope: {x: 0, y: 0, z: 0, w: 0}
        outSlope: {x: 0, y: 0, z: 0, w: 0}
        tangentMode: 30766
      - time: .183333337
        value: {x: -1, y: -1.94707169e-07, z: -1.94707169e-07, w: -8.74228121e-08}
        inSlope: {x: 0, y: 0, z: 0, w: 0}
        outSlope: {x: 0, y: 0, z: 0, w: 0}
        tangentMode: 1867276032
      - time: .200000003
        value: {x: -1, y: -1.94707169e-07, z: -1.94707169e-07, w: -8.74228121e-08}
        inSlope: {x: 0, y: 0, z: 0, w: 0}
        outSlope: {x: 0, y: 0, z: 0, w: 0}
        tangentMode: 0
      - time: .216666669
        value: {x: -1, y: -1.94707169e-07, z: -1.94707169e-07, w: -8.74228121e-08}
        inSlope: {x: 0, y: 0, z: 0, w: 0}
        outSlope: {x: 0, y: 0, z: 0, w: 0}
        tangentMode: -2
      - time: .233333334
        value: {x: -1, y: -1.94707169e-07, z: -1.94707169e-07, w: -8.74228121e-08}
        inSlope: {x: 0, y: 0, z: 0, w: 0}
        outSlope: {x: 0, y: 0, z: 0, w: 0}
        tangentMode: 0
      - time: .25
        value: {x: -1, y: -1.94707169e-07, z: -1.94707169e-07, w: -8.74228121e-08}
        inSlope: {x: 0, y: 0, z: 0, w: 0}
        outSlope: {x: 0, y: 0, z: 0, w: 0}
        tangentMode: 15
      - time: .266666681
        value: {x: -1, y: -1.94707169e-07, z: -1.94707169e-07, w: -8.74228121e-08}
        inSlope: {x: 0, y: 0, z: 0, w: 0}
        outSlope: {x: 0, y: 0, z: 0, w: 0}
        tangentMode: -1
      - time: .283333361
        value: {x: -1, y: -1.94707169e-07, z: -1.94707169e-07, w: -8.74228121e-08}
        inSlope: {x: 0, y: 0, z: 0, w: 0}
        outSlope: {x: 0, y: 0, z: 0, w: 0}
        tangentMode: 0
      - time: .300000042
        value: {x: -1, y: -1.94707169e-07, z: -1.94707169e-07, w: -8.74228121e-08}
        inSlope: {x: 0, y: 0, z: 0, w: 0}
        outSlope: {x: 0, y: 0, z: 0, w: 0}
        tangentMode: -1
      - time: .316666722
        value: {x: -1, y: -1.94707169e-07, z: -1.94707169e-07, w: -8.74228121e-08}
        inSlope: {x: 0, y: 0, z: 0, w: 0}
        outSlope: {x: 0, y: 0, z: 0, w: 0}
        tangentMode: 8192
      - time: .333333403
        value: {x: -1, y: -1.94707169e-07, z: -1.94707169e-07, w: -8.74228121e-08}
        inSlope: {x: 0, y: 0, z: 0, w: 0}
        outSlope: {x: 0, y: 0, z: 0, w: 0}
        tangentMode: 23
      - time: .350000083
        value: {x: -1, y: -1.94707169e-07, z: -1.94707169e-07, w: -8.74228121e-08}
        inSlope: {x: 0, y: 0, z: 0, w: 0}
        outSlope: {x: 0, y: 0, z: 0, w: 0}
        tangentMode: 0
      - time: .366666764
        value: {x: -1, y: -1.94707169e-07, z: -1.94707169e-07, w: -8.74228121e-08}
        inSlope: {x: 0, y: 0, z: 0, w: 0}
        outSlope: {x: 0, y: 0, z: 0, w: 0}
        tangentMode: -1
      - time: .383333445
        value: {x: -1, y: -1.94707169e-07, z: -1.94707169e-07, w: -8.74228121e-08}
        inSlope: {x: 0, y: 0, z: 0, w: 0}
        outSlope: {x: 0, y: 0, z: 0, w: 0}
        tangentMode: 15
      - time: .400000125
        value: {x: -1, y: -1.94707169e-07, z: -1.94707169e-07, w: -8.74228121e-08}
        inSlope: {x: 0, y: 0, z: 0, w: 0}
        outSlope: {x: 0, y: 0, z: 0, w: 0}
        tangentMode: -1
      - time: .416666806
        value: {x: -1, y: -1.94707169e-07, z: -1.94707169e-07, w: -8.74228121e-08}
        inSlope: {x: 0, y: 0, z: 0, w: 0}
        outSlope: {x: 0, y: 0, z: 0, w: 0}
        tangentMode: -256
      - time: .433333486
        value: {x: -1, y: -1.94707169e-07, z: -1.94707169e-07, w: -8.74228121e-08}
        inSlope: {x: 0, y: 0, z: 0, w: 0}
        outSlope: {x: 0, y: 0, z: 0, w: 0}
        tangentMode: 0
      - time: .450000167
        value: {x: -1, y: -1.94707169e-07, z: -1.94707169e-07, w: -8.74228121e-08}
        inSlope: {x: 0, y: 0, z: 0, w: 0}
        outSlope: {x: 0, y: 0, z: 0, w: 0}
        tangentMode: -1
      - time: .466666847
        value: {x: -1, y: -1.94707169e-07, z: -1.94707169e-07, w: -8.74228121e-08}
        inSlope: {x: 0, y: 0, z: 0, w: 0}
        outSlope: {x: 0, y: 0, z: 0, w: 0}
        tangentMode: 154063360
      - time: .483333528
        value: {x: -1, y: -1.94707169e-07, z: -1.94707169e-07, w: -8.74228121e-08}
        inSlope: {x: 0, y: 0, z: 0, w: 0}
        outSlope: {x: 0, y: 0, z: 0, w: 0}
        tangentMode: 0
      - time: .500000179
        value: {x: -1, y: -1.94707169e-07, z: -1.94707169e-07, w: -8.74228121e-08}
        inSlope: {x: 0, y: 0, z: 0, w: 0}
        outSlope: {x: 0, y: 0, z: 0, w: 0}
        tangentMode: -1
      - time: .51666683
        value: {x: -1, y: -1.94707169e-07, z: -1.94707169e-07, w: -8.74228121e-08}
        inSlope: {x: 0, y: 0, z: 0, w: 0}
        outSlope: {x: 0, y: 0, z: 0, w: 0}
        tangentMode: 0
      - time: .53333348
        value: {x: -1, y: -1.94707169e-07, z: -1.94707169e-07, w: -8.74228121e-08}
        inSlope: {x: 0, y: 0, z: 0, w: 0}
        outSlope: {x: 0, y: 0, z: 0, w: 0}
        tangentMode: 15
      - time: .550000131
        value: {x: -1, y: -1.94707169e-07, z: -1.94707169e-07, w: -8.74228121e-08}
        inSlope: {x: 0, y: 0, z: 0, w: 0}
        outSlope: {x: 0, y: 0, z: 0, w: 0}
        tangentMode: -2
      - time: .566666782
        value: {x: -1, y: -1.94707169e-07, z: -1.94707169e-07, w: -8.74228121e-08}
        inSlope: {x: 0, y: 0, z: 0, w: 0}
        outSlope: {x: 0, y: 0, z: 0, w: 0}
        tangentMode: 0
      - time: .583333433
        value: {x: -1, y: -1.94707169e-07, z: -1.94707169e-07, w: -8.74228121e-08}
        inSlope: {x: 0, y: 0, z: 0, w: 0}
        outSlope: {x: 0, y: 0, z: 0, w: 0}
        tangentMode: 4250
      - time: .600000083
        value: {x: -1, y: -1.94707169e-07, z: -1.94707169e-07, w: -8.74228121e-08}
        inSlope: {x: 0, y: 0, z: 0, w: 0}
        outSlope: {x: 0, y: 0, z: 0, w: 0}
        tangentMode: 0
      - time: .616666734
        value: {x: -1, y: -1.94707169e-07, z: -1.94707169e-07, w: -8.74228121e-08}
        inSlope: {x: 0, y: 0, z: 0, w: 0}
        outSlope: {x: 0, y: 0, z: 0, w: 0}
        tangentMode: -2
      - time: .633333385
        value: {x: -1, y: -1.94707169e-07, z: -1.94707169e-07, w: -8.74228121e-08}
        inSlope: {x: 0, y: 0, z: 0, w: 0}
        outSlope: {x: 0, y: 0, z: 0, w: 0}
        tangentMode: 0
      - time: .650000036
        value: {x: -1, y: -1.94707169e-07, z: -1.94707169e-07, w: -8.74228121e-08}
        inSlope: {x: 0, y: 0, z: 0, w: 0}
        outSlope: {x: 0, y: 0, z: 0, w: 0}
        tangentMode: 15
      - time: .666666687
        value: {x: -1, y: -1.94707169e-07, z: -1.94707169e-07, w: -8.74228121e-08}
        inSlope: {x: 0, y: 0, z: 0, w: 0}
        outSlope: {x: 0, y: 0, z: 0, w: 0}
        tangentMode: -1
      - time: .683333337
        value: {x: -1, y: -1.94707169e-07, z: -1.94707169e-07, w: -8.74228121e-08}
        inSlope: {x: 0, y: 0, z: 0, w: 0}
        outSlope: {x: 0, y: 0, z: 0, w: 0}
        tangentMode: 0
      - time: .699999988
        value: {x: -1, y: -1.94707169e-07, z: -1.94707169e-07, w: -8.74228121e-08}
        inSlope: {x: 0, y: 0, z: 0, w: 0}
        outSlope: {x: 0, y: 0, z: 0, w: 0}
        tangentMode: -2
      - time: .716666639
        value: {x: -1, y: -1.94707169e-07, z: -1.94707169e-07, w: -8.74228121e-08}
        inSlope: {x: 0, y: 0, z: 0, w: 0}
        outSlope: {x: 0, y: 0, z: 0, w: 0}
        tangentMode: -256
      - time: .73333329
        value: {x: -1, y: -1.94707169e-07, z: -1.94707169e-07, w: -8.74228121e-08}
        inSlope: {x: 0, y: 0, z: 0, w: 0}
        outSlope: {x: 0, y: 0, z: 0, w: 0}
        tangentMode: 4
      - time: .74999994
        value: {x: -1, y: -1.94707169e-07, z: -1.94707169e-07, w: -8.74228121e-08}
        inSlope: {x: 0, y: 0, z: 0, w: 0}
        outSlope: {x: 0, y: 0, z: 0, w: 0}
        tangentMode: 0
      - time: .766666591
        value: {x: -1, y: -1.94707169e-07, z: -1.94707169e-07, w: -8.74228121e-08}
        inSlope: {x: 0, y: 0, z: 0, w: 0}
        outSlope: {x: 0, y: 0, z: 0, w: 0}
        tangentMode: 1399611747
      - time: .783333242
        value: {x: -1, y: -1.94707169e-07, z: -1.94707169e-07, w: -8.74228121e-08}
        inSlope: {x: 0, y: 0, z: 0, w: 0}
        outSlope: {x: 0, y: 0, z: 0, w: 0}
        tangentMode: 15
      - time: .799999893
        value: {x: -1, y: -1.94707169e-07, z: -1.94707169e-07, w: -8.74228121e-08}
        inSlope: {x: 0, y: 0, z: 0, w: 0}
        outSlope: {x: 0, y: 0, z: 0, w: 0}
        tangentMode: -1
      - time: .816666543
        value: {x: -1, y: -1.94707169e-07, z: -1.94707169e-07, w: -8.74228121e-08}
        inSlope: {x: 0, y: 0, z: 0, w: 0}
        outSlope: {x: 0, y: 0, z: 0, w: 0}
        tangentMode: -255
      - time: .833333194
        value: {x: -1, y: -1.94707169e-07, z: -1.94707169e-07, w: -8.74228121e-08}
        inSlope: {x: 0, y: 0, z: 0, w: 0}
        outSlope: {x: 0, y: 0, z: 0, w: 0}
        tangentMode: 0
      - time: .849999845
        value: {x: -1, y: -1.94707169e-07, z: -1.94707169e-07, w: -8.74228121e-08}
        inSlope: {x: 0, y: 0, z: 0, w: 0}
        outSlope: {x: 0, y: 0, z: 0, w: 0}
        tangentMode: -2
      - time: .866666496
        value: {x: -1, y: -1.94707169e-07, z: -1.94707169e-07, w: -8.74228121e-08}
        inSlope: {x: 0, y: 0, z: 0, w: 0}
        outSlope: {x: 0, y: 0, z: 0, w: 0}
        tangentMode: 154064896
      - time: .883333147
        value: {x: -1, y: -1.94707169e-07, z: -1.94707169e-07, w: -8.74228121e-08}
        inSlope: {x: 0, y: 0, z: 0, w: 0}
        outSlope: {x: 0, y: 0, z: 0, w: 0}
        tangentMode: 0
      - time: .899999797
        value: {x: -1, y: -1.94707169e-07, z: -1.94707169e-07, w: -8.74228121e-08}
        inSlope: {x: 0, y: 0, z: 0, w: 0}
        outSlope: {x: 0, y: 0, z: 0, w: 0}
        tangentMode: -1
      - time: .916666448
        value: {x: -1, y: -1.94707169e-07, z: -1.94707169e-07, w: -8.74228121e-08}
        inSlope: {x: 0, y: 0, z: 0, w: 0}
        outSlope: {x: 0, y: 0, z: 0, w: 0}
        tangentMode: 0
      - time: .933333099
        value: {x: -1, y: -1.94707169e-07, z: -1.94707169e-07, w: -8.74228121e-08}
        inSlope: {x: 0, y: 0, z: 0, w: 0}
        outSlope: {x: 0, y: 0, z: 0, w: 0}
        tangentMode: 15
      - time: .94999975
        value: {x: -1, y: -1.94707169e-07, z: -1.94707169e-07, w: -8.74228121e-08}
        inSlope: {x: 0, y: 0, z: 0, w: 0}
        outSlope: {x: 0, y: 0, z: 0, w: 0}
        tangentMode: -1
      - time: .9666664
        value: {x: -1, y: -1.94707169e-07, z: -1.94707169e-07, w: -8.74228121e-08}
        inSlope: {x: 0, y: 0, z: 0, w: 0}
        outSlope: {x: 0, y: 0, z: 0, w: 0}
        tangentMode: 0
      - time: .983333051
        value: {x: -1, y: -1.94707169e-07, z: -1.94707169e-07, w: -8.74228121e-08}
        inSlope: {x: 0, y: 0, z: 0, w: 0}
        outSlope: {x: 0, y: 0, z: 0, w: 0}
        tangentMode: 5304
      - time: 1
        value: {x: -1, y: -1.94707169e-07, z: -1.94707169e-07, w: -8.74228121e-08}
        inSlope: {x: 0, y: 0, z: 0, w: 0}
        outSlope: {x: 0, y: 0, z: 0, w: 0}
        tangentMode: -256
      m_PreInfinity: 2
      m_PostInfinity: 2
    path: 
  m_CompressedRotationCurves: []
  m_PositionCurves: []
  m_ScaleCurves: []
  m_FloatCurves: []
  m_PPtrCurves: []
  m_SampleRate: 60
  m_WrapMode: 0
  m_Bounds:
    m_Center: {x: 0, y: 0, z: 0}
    m_Extent: {x: 0, y: 0, z: 0}
  m_ClipBindingConstant:
    genericBindings:
    - path: 0
      attribute: 2
      script: {fileID: 0}
      classID: 4
      customType: 0
      isPPtrCurve: 0
    pptrCurveMapping: []
  m_AnimationClipSettings:
    serializedVersion: 2
    m_StartTime: 0
    m_StopTime: 1
    m_OrientationOffsetY: 0
    m_Level: 0
    m_CycleOffset: 0
    m_LoopTime: 1
    m_LoopBlend: 0
    m_LoopBlendOrientation: 0
    m_LoopBlendPositionY: 0
    m_LoopBlendPositionXZ: 0
    m_KeepOriginalOrientation: 0
    m_KeepOriginalPositionY: 1
    m_KeepOriginalPositionXZ: 0
    m_HeightFromFeet: 0
    m_Mirror: 0
  m_EditorCurves:
  - curve:
      serializedVersion: 2
      m_Curve:
      - time: 0
        value: -1
        inSlope: 0
        outSlope: 0
        tangentMode: 0
      - time: .0166666675
        value: -1
        inSlope: 0
        outSlope: 0
        tangentMode: 0
      - time: .0333333351
        value: -1
        inSlope: 0
        outSlope: 0
        tangentMode: 0
      - time: .0500000045
        value: -1
        inSlope: 0
        outSlope: 0
        tangentMode: 0
      - time: .0666666701
        value: -1
        inSlope: 0
        outSlope: 0
        tangentMode: 0
      - time: .0833333358
        value: -1
        inSlope: 0
        outSlope: 0
        tangentMode: 0
      - time: .100000001
        value: -1
        inSlope: 0
        outSlope: 0
        tangentMode: 0
      - time: .116666667
        value: -1
        inSlope: 0
        outSlope: 0
        tangentMode: 0
      - time: .13333334
        value: -1
        inSlope: 0
        outSlope: 0
        tangentMode: 0
      - time: .150000006
        value: -1
        inSlope: 0
        outSlope: 0
        tangentMode: 0
      - time: .166666672
        value: -1
        inSlope: 0
        outSlope: 0
        tangentMode: 0
      - time: .183333337
        value: -1
        inSlope: 0
        outSlope: 0
        tangentMode: 0
      - time: .200000003
        value: -1
        inSlope: 0
        outSlope: 0
        tangentMode: 0
      - time: .216666669
        value: -1
        inSlope: 0
        outSlope: 0
        tangentMode: 0
      - time: .233333334
        value: -1
        inSlope: 0
        outSlope: 0
        tangentMode: 0
      - time: .25
        value: -1
        inSlope: 0
        outSlope: 0
        tangentMode: 0
      - time: .266666681
        value: -1
        inSlope: 0
        outSlope: 0
        tangentMode: 0
      - time: .283333361
        value: -1
        inSlope: 0
        outSlope: 0
        tangentMode: 0
      - time: .300000042
        value: -1
        inSlope: 0
        outSlope: 0
        tangentMode: 0
      - time: .316666722
        value: -1
        inSlope: 0
        outSlope: 0
        tangentMode: 0
      - time: .333333403
        value: -1
        inSlope: 0
        outSlope: 0
        tangentMode: 0
      - time: .350000083
        value: -1
        inSlope: 0
        outSlope: 0
        tangentMode: 0
      - time: .366666764
        value: -1
        inSlope: 0
        outSlope: 0
        tangentMode: 0
      - time: .383333445
        value: -1
        inSlope: 0
        outSlope: 0
        tangentMode: 0
      - time: .400000125
        value: -1
        inSlope: 0
        outSlope: 0
        tangentMode: 0
      - time: .416666806
        value: -1
        inSlope: 0
        outSlope: 0
        tangentMode: 0
      - time: .433333486
        value: -1
        inSlope: 0
        outSlope: 0
        tangentMode: 0
      - time: .450000167
        value: -1
        inSlope: 0
        outSlope: 0
        tangentMode: 0
      - time: .466666847
        value: -1
        inSlope: 0
        outSlope: 0
        tangentMode: 0
      - time: .483333528
        value: -1
        inSlope: 0
        outSlope: 0
        tangentMode: 0
      - time: .500000179
        value: -1
        inSlope: 0
        outSlope: 0
        tangentMode: 0
      - time: .51666683
        value: -1
        inSlope: 0
        outSlope: 0
        tangentMode: 0
      - time: .53333348
        value: -1
        inSlope: 0
        outSlope: 0
        tangentMode: 0
      - time: .550000131
        value: -1
        inSlope: 0
        outSlope: 0
        tangentMode: 0
      - time: .566666782
        value: -1
        inSlope: 0
        outSlope: 0
        tangentMode: 0
      - time: .583333433
        value: -1
        inSlope: 0
        outSlope: 0
        tangentMode: 0
      - time: .600000083
        value: -1
        inSlope: 0
        outSlope: 0
        tangentMode: 0
      - time: .616666734
        value: -1
        inSlope: 0
        outSlope: 0
        tangentMode: 0
      - time: .633333385
        value: -1
        inSlope: 0
        outSlope: 0
        tangentMode: 0
      - time: .650000036
        value: -1
        inSlope: 0
        outSlope: 0
        tangentMode: 0
      - time: .666666687
        value: -1
        inSlope: 0
        outSlope: 0
        tangentMode: 0
      - time: .683333337
        value: -1
        inSlope: 0
        outSlope: 0
        tangentMode: 0
      - time: .699999988
        value: -1
        inSlope: 0
        outSlope: 0
        tangentMode: 0
      - time: .716666639
        value: -1
        inSlope: 0
        outSlope: 0
        tangentMode: 0
      - time: .73333329
        value: -1
        inSlope: 0
        outSlope: 0
        tangentMode: 0
      - time: .74999994
        value: -1
        inSlope: 0
        outSlope: 0
        tangentMode: 0
      - time: .766666591
        value: -1
        inSlope: 0
        outSlope: 0
        tangentMode: 0
      - time: .783333242
        value: -1
        inSlope: 0
        outSlope: 0
        tangentMode: 0
      - time: .799999893
        value: -1
        inSlope: 0
        outSlope: 0
        tangentMode: 0
      - time: .816666543
        value: -1
        inSlope: 0
        outSlope: 0
        tangentMode: 0
      - time: .833333194
        value: -1
        inSlope: 0
        outSlope: 0
        tangentMode: 0
      - time: .849999845
        value: -1
        inSlope: 0
        outSlope: 0
        tangentMode: 0
      - time: .866666496
        value: -1
        inSlope: 0
        outSlope: 0
        tangentMode: 0
      - time: .883333147
        value: -1
        inSlope: 0
        outSlope: 0
        tangentMode: 0
      - time: .899999797
        value: -1
        inSlope: 0
        outSlope: 0
        tangentMode: 0
      - time: .916666448
        value: -1
        inSlope: 0
        outSlope: 0
        tangentMode: 0
      - time: .933333099
        value: -1
        inSlope: 0
        outSlope: 0
        tangentMode: 0
      - time: .94999975
        value: -1
        inSlope: 0
        outSlope: 0
        tangentMode: 0
      - time: .9666664
        value: -1
        inSlope: 0
        outSlope: 0
        tangentMode: 0
      - time: .983333051
        value: -1
        inSlope: 0
        outSlope: 0
        tangentMode: 0
      - time: 1
        value: -1
        inSlope: 0
        outSlope: 0
        tangentMode: 0
      m_PreInfinity: 2
      m_PostInfinity: 2
    attribute: m_LocalRotation.x
    path: 
    classID: 4
    script: {fileID: 0}
  - curve:
      serializedVersion: 2
      m_Curve:
      - time: 0
        value: -1.94707169e-07
        inSlope: 0
        outSlope: 0
        tangentMode: 0
      - time: .0166666675
        value: -1.94707169e-07
        inSlope: 0
        outSlope: 0
        tangentMode: 0
      - time: .0333333351
        value: -1.94707169e-07
        inSlope: 0
        outSlope: 0
        tangentMode: 0
      - time: .0500000045
        value: -1.94707169e-07
        inSlope: 0
        outSlope: 0
        tangentMode: 0
      - time: .0666666701
        value: -1.94707169e-07
        inSlope: 0
        outSlope: 0
        tangentMode: 0
      - time: .0833333358
        value: -1.94707169e-07
        inSlope: 0
        outSlope: 0
        tangentMode: 0
      - time: .100000001
        value: -1.94707169e-07
        inSlope: 0
        outSlope: 0
        tangentMode: 0
      - time: .116666667
        value: -1.94707169e-07
        inSlope: 0
        outSlope: 0
        tangentMode: 0
      - time: .13333334
        value: -1.94707169e-07
        inSlope: 0
        outSlope: 0
        tangentMode: 0
      - time: .150000006
        value: -1.94707169e-07
        inSlope: 0
        outSlope: 0
        tangentMode: 0
      - time: .166666672
        value: -1.94707169e-07
        inSlope: 0
        outSlope: 0
        tangentMode: 0
      - time: .183333337
        value: -1.94707169e-07
        inSlope: 0
        outSlope: 0
        tangentMode: 0
      - time: .200000003
        value: -1.94707169e-07
        inSlope: 0
        outSlope: 0
        tangentMode: 0
      - time: .216666669
        value: -1.94707169e-07
        inSlope: 0
        outSlope: 0
        tangentMode: 0
      - time: .233333334
        value: -1.94707169e-07
        inSlope: 0
        outSlope: 0
        tangentMode: 0
      - time: .25
        value: -1.94707169e-07
        inSlope: 0
        outSlope: 0
        tangentMode: 0
      - time: .266666681
        value: -1.94707169e-07
        inSlope: 0
        outSlope: 0
        tangentMode: 0
      - time: .283333361
        value: -1.94707169e-07
        inSlope: 0
        outSlope: 0
        tangentMode: 0
      - time: .300000042
        value: -1.94707169e-07
        inSlope: 0
        outSlope: 0
        tangentMode: 0
      - time: .316666722
        value: -1.94707169e-07
        inSlope: 0
        outSlope: 0
        tangentMode: 0
      - time: .333333403
        value: -1.94707169e-07
        inSlope: 0
        outSlope: 0
        tangentMode: 0
      - time: .350000083
        value: -1.94707169e-07
        inSlope: 0
        outSlope: 0
        tangentMode: 0
      - time: .366666764
        value: -1.94707169e-07
        inSlope: 0
        outSlope: 0
        tangentMode: 0
      - time: .383333445
        value: -1.94707169e-07
        inSlope: 0
        outSlope: 0
        tangentMode: 0
      - time: .400000125
        value: -1.94707169e-07
        inSlope: 0
        outSlope: 0
        tangentMode: 0
      - time: .416666806
        value: -1.94707169e-07
        inSlope: 0
        outSlope: 0
        tangentMode: 0
      - time: .433333486
        value: -1.94707169e-07
        inSlope: 0
        outSlope: 0
        tangentMode: 0
      - time: .450000167
        value: -1.94707169e-07
        inSlope: 0
        outSlope: 0
        tangentMode: 0
      - time: .466666847
        value: -1.94707169e-07
        inSlope: 0
        outSlope: 0
        tangentMode: 0
      - time: .483333528
        value: -1.94707169e-07
        inSlope: 0
        outSlope: 0
        tangentMode: 0
      - time: .500000179
        value: -1.94707169e-07
        inSlope: 0
        outSlope: 0
        tangentMode: 0
      - time: .51666683
        value: -1.94707169e-07
        inSlope: 0
        outSlope: 0
        tangentMode: 0
      - time: .53333348
        value: -1.94707169e-07
        inSlope: 0
        outSlope: 0
        tangentMode: 0
      - time: .550000131
        value: -1.94707169e-07
        inSlope: 0
        outSlope: 0
        tangentMode: 0
      - time: .566666782
        value: -1.94707169e-07
        inSlope: 0
        outSlope: 0
        tangentMode: 0
      - time: .583333433
        value: -1.94707169e-07
        inSlope: 0
        outSlope: 0
        tangentMode: 0
      - time: .600000083
        value: -1.94707169e-07
        inSlope: 0
        outSlope: 0
        tangentMode: 0
      - time: .616666734
        value: -1.94707169e-07
        inSlope: 0
        outSlope: 0
        tangentMode: 0
      - time: .633333385
        value: -1.94707169e-07
        inSlope: 0
        outSlope: 0
        tangentMode: 0
      - time: .650000036
        value: -1.94707169e-07
        inSlope: 0
        outSlope: 0
        tangentMode: 0
      - time: .666666687
        value: -1.94707169e-07
        inSlope: 0
        outSlope: 0
        tangentMode: 0
      - time: .683333337
        value: -1.94707169e-07
        inSlope: 0
        outSlope: 0
        tangentMode: 0
      - time: .699999988
        value: -1.94707169e-07
        inSlope: 0
        outSlope: 0
        tangentMode: 0
      - time: .716666639
        value: -1.94707169e-07
        inSlope: 0
        outSlope: 0
        tangentMode: 0
      - time: .73333329
        value: -1.94707169e-07
        inSlope: 0
        outSlope: 0
        tangentMode: 0
      - time: .74999994
        value: -1.94707169e-07
        inSlope: 0
        outSlope: 0
        tangentMode: 0
      - time: .766666591
        value: -1.94707169e-07
        inSlope: 0
        outSlope: 0
        tangentMode: 0
      - time: .783333242
        value: -1.94707169e-07
        inSlope: 0
        outSlope: 0
        tangentMode: 0
      - time: .799999893
        value: -1.94707169e-07
        inSlope: 0
        outSlope: 0
        tangentMode: 0
      - time: .816666543
        value: -1.94707169e-07
        inSlope: 0
        outSlope: 0
        tangentMode: 0
      - time: .833333194
        value: -1.94707169e-07
        inSlope: 0
        outSlope: 0
        tangentMode: 0
      - time: .849999845
        value: -1.94707169e-07
        inSlope: 0
        outSlope: 0
        tangentMode: 0
      - time: .866666496
        value: -1.94707169e-07
        inSlope: 0
        outSlope: 0
        tangentMode: 0
      - time: .883333147
        value: -1.94707169e-07
        inSlope: 0
        outSlope: 0
        tangentMode: 0
      - time: .899999797
        value: -1.94707169e-07
        inSlope: 0
        outSlope: 0
        tangentMode: 0
      - time: .916666448
        value: -1.94707169e-07
        inSlope: 0
        outSlope: 0
        tangentMode: 0
      - time: .933333099
        value: -1.94707169e-07
        inSlope: 0
        outSlope: 0
        tangentMode: 0
      - time: .94999975
        value: -1.94707169e-07
        inSlope: 0
        outSlope: 0
        tangentMode: 0
      - time: .9666664
        value: -1.94707169e-07
        inSlope: 0
        outSlope: 0
        tangentMode: 0
      - time: .983333051
        value: -1.94707169e-07
        inSlope: 0
        outSlope: 0
        tangentMode: 0
      - time: 1
        value: -1.94707169e-07
        inSlope: 0
        outSlope: 0
        tangentMode: 0
      m_PreInfinity: 2
      m_PostInfinity: 2
    attribute: m_LocalRotation.y
    path: 
    classID: 4
    script: {fileID: 0}
  - curve:
      serializedVersion: 2
      m_Curve:
      - time: 0
        value: -1.94707169e-07
        inSlope: 0
        outSlope: 0
        tangentMode: 0
      - time: .0166666675
        value: -1.94707169e-07
        inSlope: 0
        outSlope: 0
        tangentMode: 0
      - time: .0333333351
        value: -1.94707169e-07
        inSlope: 0
        outSlope: 0
        tangentMode: 0
      - time: .0500000045
        value: -1.94707169e-07
        inSlope: 0
        outSlope: 0
        tangentMode: 0
      - time: .0666666701
        value: -1.94707169e-07
        inSlope: 0
        outSlope: 0
        tangentMode: 0
      - time: .0833333358
        value: -1.94707169e-07
        inSlope: 0
        outSlope: 0
        tangentMode: 0
      - time: .100000001
        value: -1.94707169e-07
        inSlope: 0
        outSlope: 0
        tangentMode: 0
      - time: .116666667
        value: -1.94707169e-07
        inSlope: 0
        outSlope: 0
        tangentMode: 0
      - time: .13333334
        value: -1.94707169e-07
        inSlope: 0
        outSlope: 0
        tangentMode: 0
      - time: .150000006
        value: -1.94707169e-07
        inSlope: 0
        outSlope: 0
        tangentMode: 0
      - time: .166666672
        value: -1.94707169e-07
        inSlope: 0
        outSlope: 0
        tangentMode: 0
      - time: .183333337
        value: -1.94707169e-07
        inSlope: 0
        outSlope: 0
        tangentMode: 0
      - time: .200000003
        value: -1.94707169e-07
        inSlope: 0
        outSlope: 0
        tangentMode: 0
      - time: .216666669
        value: -1.94707169e-07
        inSlope: 0
        outSlope: 0
        tangentMode: 0
      - time: .233333334
        value: -1.94707169e-07
        inSlope: 0
        outSlope: 0
        tangentMode: 0
      - time: .25
        value: -1.94707169e-07
        inSlope: 0
        outSlope: 0
        tangentMode: 0
      - time: .266666681
        value: -1.94707169e-07
        inSlope: 0
        outSlope: 0
        tangentMode: 0
      - time: .283333361
        value: -1.94707169e-07
        inSlope: 0
        outSlope: 0
        tangentMode: 0
      - time: .300000042
        value: -1.94707169e-07
        inSlope: 0
        outSlope: 0
        tangentMode: 0
      - time: .316666722
        value: -1.94707169e-07
        inSlope: 0
        outSlope: 0
        tangentMode: 0
      - time: .333333403
        value: -1.94707169e-07
        inSlope: 0
        outSlope: 0
        tangentMode: 0
      - time: .350000083
        value: -1.94707169e-07
        inSlope: 0
        outSlope: 0
        tangentMode: 0
      - time: .366666764
        value: -1.94707169e-07
        inSlope: 0
        outSlope: 0
        tangentMode: 0
      - time: .383333445
        value: -1.94707169e-07
        inSlope: 0
        outSlope: 0
        tangentMode: 0
      - time: .400000125
        value: -1.94707169e-07
        inSlope: 0
        outSlope: 0
        tangentMode: 0
      - time: .416666806
        value: -1.94707169e-07
        inSlope: 0
        outSlope: 0
        tangentMode: 0
      - time: .433333486
        value: -1.94707169e-07
        inSlope: 0
        outSlope: 0
        tangentMode: 0
      - time: .450000167
        value: -1.94707169e-07
        inSlope: 0
        outSlope: 0
        tangentMode: 0
      - time: .466666847
        value: -1.94707169e-07
        inSlope: 0
        outSlope: 0
        tangentMode: 0
      - time: .483333528
        value: -1.94707169e-07
        inSlope: 0
        outSlope: 0
        tangentMode: 0
      - time: .500000179
        value: -1.94707169e-07
        inSlope: 0
        outSlope: 0
        tangentMode: 0
      - time: .51666683
        value: -1.94707169e-07
        inSlope: 0
        outSlope: 0
        tangentMode: 0
      - time: .53333348
        value: -1.94707169e-07
        inSlope: 0
        outSlope: 0
        tangentMode: 0
      - time: .550000131
        value: -1.94707169e-07
        inSlope: 0
        outSlope: 0
        tangentMode: 0
      - time: .566666782
        value: -1.94707169e-07
        inSlope: 0
        outSlope: 0
        tangentMode: 0
      - time: .583333433
        value: -1.94707169e-07
        inSlope: 0
        outSlope: 0
        tangentMode: 0
      - time: .600000083
        value: -1.94707169e-07
        inSlope: 0
        outSlope: 0
        tangentMode: 0
      - time: .616666734
        value: -1.94707169e-07
        inSlope: 0
        outSlope: 0
        tangentMode: 0
      - time: .633333385
        value: -1.94707169e-07
        inSlope: 0
        outSlope: 0
        tangentMode: 0
      - time: .650000036
        value: -1.94707169e-07
        inSlope: 0
        outSlope: 0
        tangentMode: 0
      - time: .666666687
        value: -1.94707169e-07
        inSlope: 0
        outSlope: 0
        tangentMode: 0
      - time: .683333337
        value: -1.94707169e-07
        inSlope: 0
        outSlope: 0
        tangentMode: 0
      - time: .699999988
        value: -1.94707169e-07
        inSlope: 0
        outSlope: 0
        tangentMode: 0
      - time: .716666639
        value: -1.94707169e-07
        inSlope: 0
        outSlope: 0
        tangentMode: 0
      - time: .73333329
        value: -1.94707169e-07
        inSlope: 0
        outSlope: 0
        tangentMode: 0
      - time: .74999994
        value: -1.94707169e-07
        inSlope: 0
        outSlope: 0
        tangentMode: 0
      - time: .766666591
        value: -1.94707169e-07
        inSlope: 0
        outSlope: 0
        tangentMode: 0
      - time: .783333242
        value: -1.94707169e-07
        inSlope: 0
        outSlope: 0
        tangentMode: 0
      - time: .799999893
        value: -1.94707169e-07
        inSlope: 0
        outSlope: 0
        tangentMode: 0
      - time: .816666543
        value: -1.94707169e-07
        inSlope: 0
        outSlope: 0
        tangentMode: 0
      - time: .833333194
        value: -1.94707169e-07
        inSlope: 0
        outSlope: 0
        tangentMode: 0
      - time: .849999845
        value: -1.94707169e-07
        inSlope: 0
        outSlope: 0
        tangentMode: 0
      - time: .866666496
        value: -1.94707169e-07
        inSlope: 0
        outSlope: 0
        tangentMode: 0
      - time: .883333147
        value: -1.94707169e-07
        inSlope: 0
        outSlope: 0
        tangentMode: 0
      - time: .899999797
        value: -1.94707169e-07
        inSlope: 0
        outSlope: 0
        tangentMode: 0
      - time: .916666448
        value: -1.94707169e-07
        inSlope: 0
        outSlope: 0
        tangentMode: 0
      - time: .933333099
        value: -1.94707169e-07
        inSlope: 0
        outSlope: 0
        tangentMode: 0
      - time: .94999975
        value: -1.94707169e-07
        inSlope: 0
        outSlope: 0
        tangentMode: 0
      - time: .9666664
        value: -1.94707169e-07
        inSlope: 0
        outSlope: 0
        tangentMode: 0
      - time: .983333051
        value: -1.94707169e-07
        inSlope: 0
        outSlope: 0
        tangentMode: 0
      - time: 1
        value: -1.94707169e-07
        inSlope: 0
        outSlope: 0
        tangentMode: 0
      m_PreInfinity: 2
      m_PostInfinity: 2
    attribute: m_LocalRotation.z
    path: 
    classID: 4
    script: {fileID: 0}
  - curve:
      serializedVersion: 2
      m_Curve:
      - time: 0
        value: -8.74228121e-08
        inSlope: 0
        outSlope: 0
        tangentMode: 0
      - time: .0166666675
        value: -8.74228121e-08
        inSlope: 0
        outSlope: 0
        tangentMode: 0
      - time: .0333333351
        value: -8.74228121e-08
        inSlope: 0
        outSlope: 0
        tangentMode: 0
      - time: .0500000045
        value: -8.74228121e-08
        inSlope: 0
        outSlope: 0
        tangentMode: 0
      - time: .0666666701
        value: -8.74228121e-08
        inSlope: 0
        outSlope: 0
        tangentMode: 0
      - time: .0833333358
        value: -8.74228121e-08
        inSlope: 0
        outSlope: 0
        tangentMode: 0
      - time: .100000001
        value: -8.74228121e-08
        inSlope: 0
        outSlope: 0
        tangentMode: 0
      - time: .116666667
        value: -8.74228121e-08
        inSlope: 0
        outSlope: 0
        tangentMode: 0
      - time: .13333334
        value: -8.74228121e-08
        inSlope: 0
        outSlope: 0
        tangentMode: 0
      - time: .150000006
        value: -8.74228121e-08
        inSlope: 0
        outSlope: 0
        tangentMode: 0
      - time: .166666672
        value: -8.74228121e-08
        inSlope: 0
        outSlope: 0
        tangentMode: 0
      - time: .183333337
        value: -8.74228121e-08
        inSlope: 0
        outSlope: 0
        tangentMode: 0
      - time: .200000003
        value: -8.74228121e-08
        inSlope: 0
        outSlope: 0
        tangentMode: 0
      - time: .216666669
        value: -8.74228121e-08
        inSlope: 0
        outSlope: 0
        tangentMode: 0
      - time: .233333334
        value: -8.74228121e-08
        inSlope: 0
        outSlope: 0
        tangentMode: 0
      - time: .25
        value: -8.74228121e-08
        inSlope: 0
        outSlope: 0
        tangentMode: 0
      - time: .266666681
        value: -8.74228121e-08
        inSlope: 0
        outSlope: 0
        tangentMode: 0
      - time: .283333361
        value: -8.74228121e-08
        inSlope: 0
        outSlope: 0
        tangentMode: 0
      - time: .300000042
        value: -8.74228121e-08
        inSlope: 0
        outSlope: 0
        tangentMode: 0
      - time: .316666722
        value: -8.74228121e-08
        inSlope: 0
        outSlope: 0
        tangentMode: 0
      - time: .333333403
        value: -8.74228121e-08
        inSlope: 0
        outSlope: 0
        tangentMode: 0
      - time: .350000083
        value: -8.74228121e-08
        inSlope: 0
        outSlope: 0
        tangentMode: 0
      - time: .366666764
        value: -8.74228121e-08
        inSlope: 0
        outSlope: 0
        tangentMode: 0
      - time: .383333445
        value: -8.74228121e-08
        inSlope: 0
        outSlope: 0
        tangentMode: 0
      - time: .400000125
        value: -8.74228121e-08
        inSlope: 0
        outSlope: 0
        tangentMode: 0
      - time: .416666806
        value: -8.74228121e-08
        inSlope: 0
        outSlope: 0
        tangentMode: 0
      - time: .433333486
        value: -8.74228121e-08
        inSlope: 0
        outSlope: 0
        tangentMode: 0
      - time: .450000167
        value: -8.74228121e-08
        inSlope: 0
        outSlope: 0
        tangentMode: 0
      - time: .466666847
        value: -8.74228121e-08
        inSlope: 0
        outSlope: 0
        tangentMode: 0
      - time: .483333528
        value: -8.74228121e-08
        inSlope: 0
        outSlope: 0
        tangentMode: 0
      - time: .500000179
        value: -8.74228121e-08
        inSlope: 0
        outSlope: 0
        tangentMode: 0
      - time: .51666683
        value: -8.74228121e-08
        inSlope: 0
        outSlope: 0
        tangentMode: 0
      - time: .53333348
        value: -8.74228121e-08
        inSlope: 0
        outSlope: 0
        tangentMode: 0
      - time: .550000131
        value: -8.74228121e-08
        inSlope: 0
        outSlope: 0
        tangentMode: 0
      - time: .566666782
        value: -8.74228121e-08
        inSlope: 0
        outSlope: 0
        tangentMode: 0
      - time: .583333433
        value: -8.74228121e-08
        inSlope: 0
        outSlope: 0
        tangentMode: 0
      - time: .600000083
        value: -8.74228121e-08
        inSlope: 0
        outSlope: 0
        tangentMode: 0
      - time: .616666734
        value: -8.74228121e-08
        inSlope: 0
        outSlope: 0
        tangentMode: 0
      - time: .633333385
        value: -8.74228121e-08
        inSlope: 0
        outSlope: 0
        tangentMode: 0
      - time: .650000036
        value: -8.74228121e-08
        inSlope: 0
        outSlope: 0
        tangentMode: 0
      - time: .666666687
        value: -8.74228121e-08
        inSlope: 0
        outSlope: 0
        tangentMode: 0
      - time: .683333337
        value: -8.74228121e-08
        inSlope: 0
        outSlope: 0
        tangentMode: 0
      - time: .699999988
        value: -8.74228121e-08
        inSlope: 0
        outSlope: 0
        tangentMode: 0
      - time: .716666639
        value: -8.74228121e-08
        inSlope: 0
        outSlope: 0
        tangentMode: 0
      - time: .73333329
        value: -8.74228121e-08
        inSlope: 0
        outSlope: 0
        tangentMode: 0
      - time: .74999994
        value: -8.74228121e-08
        inSlope: 0
        outSlope: 0
        tangentMode: 0
      - time: .766666591
        value: -8.74228121e-08
        inSlope: 0
        outSlope: 0
        tangentMode: 0
      - time: .783333242
        value: -8.74228121e-08
        inSlope: 0
        outSlope: 0
        tangentMode: 0
      - time: .799999893
        value: -8.74228121e-08
        inSlope: 0
        outSlope: 0
        tangentMode: 0
      - time: .816666543
        value: -8.74228121e-08
        inSlope: 0
        outSlope: 0
        tangentMode: 0
      - time: .833333194
        value: -8.74228121e-08
        inSlope: 0
        outSlope: 0
        tangentMode: 0
      - time: .849999845
        value: -8.74228121e-08
        inSlope: 0
        outSlope: 0
        tangentMode: 0
      - time: .866666496
        value: -8.74228121e-08
        inSlope: 0
        outSlope: 0
        tangentMode: 0
      - time: .883333147
        value: -8.74228121e-08
        inSlope: 0
        outSlope: 0
        tangentMode: 0
      - time: .899999797
        value: -8.74228121e-08
        inSlope: 0
        outSlope: 0
        tangentMode: 0
      - time: .916666448
        value: -8.74228121e-08
        inSlope: 0
        outSlope: 0
        tangentMode: 0
      - time: .933333099
        value: -8.74228121e-08
        inSlope: 0
        outSlope: 0
        tangentMode: 0
      - time: .94999975
        value: -8.74228121e-08
        inSlope: 0
        outSlope: 0
        tangentMode: 0
      - time: .9666664
        value: -8.74228121e-08
        inSlope: 0
        outSlope: 0
        tangentMode: 0
      - time: .983333051
        value: -8.74228121e-08
        inSlope: 0
        outSlope: 0
        tangentMode: 0
      - time: 1
        value: -8.74228121e-08
        inSlope: 0
        outSlope: 0
        tangentMode: 0
      m_PreInfinity: 2
      m_PostInfinity: 2
    attribute: m_LocalRotation.w
    path: 
    classID: 4
    script: {fileID: 0}
  m_EulerEditorCurves:
  - curve:
      serializedVersion: 2
      m_Curve:
      - time: 0
        value: 360
        inSlope: 0
        outSlope: 0
        tangentMode: 10
      - time: 1
        value: 360
        inSlope: 0
        outSlope: 0
        tangentMode: 10
      m_PreInfinity: 2
      m_PostInfinity: 2
    attribute: localEulerAnglesBaked.x
    path: 
    classID: 4
    script: {fileID: 0}
  - curve:
      serializedVersion: 2
      m_Curve:
      - time: 0
        value: 179.999985
        inSlope: 0
        outSlope: 0
        tangentMode: 10
      - time: 1
        value: 179.999985
        inSlope: 0
        outSlope: 0
        tangentMode: 10
      m_PreInfinity: 2
      m_PostInfinity: 2
    attribute: localEulerAnglesBaked.y
    path: 
    classID: 4
    script: {fileID: 0}
  - curve:
      serializedVersion: 2
      m_Curve:
      - time: 0
        value: 179.999985
        inSlope: 0
        outSlope: 0
        tangentMode: 10
      - time: 1
        value: 179.999985
        inSlope: 0
        outSlope: 0
        tangentMode: 10
      m_PreInfinity: 2
      m_PostInfinity: 2
    attribute: localEulerAnglesBaked.z
    path: 
    classID: 4
    script: {fileID: 0}
  m_Events: []
