%YAML 1.1
%TAG !u! tag:unity3d.com,2011:
--- !u!74 &7400000
AnimationClip:
  m_ObjectHideFlags: 0
  m_PrefabParentObject: {fileID: 0}
  m_PrefabInternal: {fileID: 0}
  m_Name: Sword attack
  serializedVersion: 4
  m_AnimationType: 2
  m_Compressed: 0
  m_UseHighQualityCurve: 1
  m_RotationCurves:
  - curve:
      serializedVersion: 2
      m_Curve:
      - time: 0
        value: {x: 1, y: 4.37113883e-08, z: 4.37113883e-08, w: 1.91068547e-15}
        inSlope: {x: -.0150811663, y: -1.01842308, z: .450051129, w: -.75490731}
        outSlope: {x: -.0150811663, y: -1.01842308, z: .450051129, w: -.75490731}
        tangentMode: -1090910394
      - time: .0166666675
        value: {x: .999748647, y: -.0169736762, z: .00750089623, w: -.0125817889}
        inSlope: {x: -.0299584847, y: -1.01217639, z: .436981231, w: -.762351513}
        outSlope: {x: -.0299584847, y: -1.01217639, z: .436981231, w: -.762351513}
        tangentMode: -1092193295
      - time: .0333333351
        value: {x: .999001384, y: -.0337391719, z: .0145660853, w: -.0254117195}
        inSlope: {x: -.059394829, y: -.99924475, z: .41054529, w: -.776770413}
        outSlope: {x: -.059394829, y: -.99924475, z: .41054529, w: -.776770413}
        tangentMode: -1115913602
      - time: .0500000045
        value: {x: .997768819, y: -.0502818376, z: .0211857408, w: -.0384741388}
        inSlope: {x: -.0881749392, y: -.985408008, z: .383524388, w: -.790237665}
        outSlope: {x: -.0881749392, y: -.985408008, z: .383524388, w: -.790237665}
        tangentMode: 1044102076
      - time: .0666666701
        value: {x: .996062219, y: -.066586107, z: .027350232, w: -.0517529771}
        inSlope: {x: -.116273776, y: -.970693946, z: .355952203, w: -.802730322}
        outSlope: {x: -.116273776, y: -.970693946, z: .355952203, w: -.802730322}
        tangentMode: 0
      - time: .0833333358
        value: {x: .993893027, y: -.082638301, z: .0330508128, w: -.065231815}
        inSlope: {x: -.143662706, y: -.955131054, z: .327874839, w: -.814227462}
        outSlope: {x: -.143662706, y: -.955131054, z: .327874839, w: -.814227462}
        tangentMode: -1097624466
      - time: .100000001
        value: {x: .991273463, y: -.0984238088, z: .0382793918, w: -.0788938925}
        inSlope: {x: -.170305982, y: -.938749909, z: .299317449, w: -.824708462}
        outSlope: {x: -.170305982, y: -.938749909, z: .299317449, w: -.824708462}
        tangentMode: -1099600272
      - time: .116666667
        value: {x: .988216162, y: -.113929965, z: .0430280603, w: -.0927220955}
        inSlope: {x: -.19618389, y: -.921580493, z: .270317435, w: -.834153473}
        outSlope: {x: -.19618389, y: -.921580493, z: .270317435, w: -.834153473}
        tangentMode: -1106809658
      - time: .13333334
        value: {x: .984733999, y: -.129143164, z: .047289975, w: -.106699012}
        inSlope: {x: -.221273273, y: -.903655529, z: .240921676, w: -.842546344}
        outSlope: {x: -.221273273, y: -.903655529, z: .240921676, w: -.842546344}
        tangentMode: 1054168410
      - time: .150000006
        value: {x: .980840385, y: -.14405182, z: .0510587841, w: -.120806977}
        inSlope: {x: -.245549113, y: -.885006547, z: .211159155, w: -.849870265}
        outSlope: {x: -.245549113, y: -.885006547, z: .211159155, w: -.849870265}
        tangentMode: 0
      - time: .166666672
        value: {x: .976549029, y: -.15864338, z: .054328613, w: -.13502802}
        inSlope: {x: -.268982679, y: -.865667343, z: .181067348, w: -.856110215}
        outSlope: {x: -.268982679, y: -.865667343, z: .181067348, w: -.856110215}
        tangentMode: -1098535318
      - time: .183333337
        value: {x: .971874297, y: -.172907397, z: .0570943616, w: -.149343982}
        inSlope: {x: -.291554362, y: -.845672369, z: .150696695, w: -.861253381}
        outSlope: {x: -.291554362, y: -.845672369, z: .150696695, w: -.861253381}
        tangentMode: -1091936751
      - time: .200000003
        value: {x: .966830552, y: -.186832458, z: .0593518354, w: -.163736463}
        inSlope: {x: -.313251644, y: -.825055599, z: .120076925, w: -.865286052}
        outSlope: {x: -.313251644, y: -.825055599, z: .120076925, w: -.865286052}
        tangentMode: -1102644437
      - time: .216666669
        value: {x: .961432576, y: -.200409248, z: .0610969253, w: -.178186849}
        inSlope: {x: -.334042341, y: -.803854525, z: .0892481655, w: -.868198931}
        outSlope: {x: -.334042341, y: -.803854525, z: .0892481655, w: -.868198931}
        tangentMode: 1059481191
      - time: .233333334
        value: {x: .955695808, y: -.213627607, z: .062326774, w: -.192676425}
        inSlope: {x: -.353921086, y: -.782102227, z: .0582608283, w: -.869984865}
        outSlope: {x: -.353921086, y: -.782102227, z: .0582608283, w: -.869984865}
        tangentMode: 0
      - time: .25
        value: {x: .949635208, y: -.226479322, z: .0630389526, w: -.207186341}
        inSlope: {x: -.372871608, y: -.759843588, z: .0271450691, w: -.870633125}
        outSlope: {x: -.372871608, y: -.759843588, z: .0271450691, w: -.870633125}
        tangentMode: -1092280717
      - time: .266666681
        value: {x: .943266749, y: -.238955736, z: .0632316098, w: -.221697539}
        inSlope: {x: -.390869051, y: -.737095475, z: -.00405303761, w: -.870137393}
        outSlope: {x: -.390869051, y: -.737095475, z: -.00405303761, w: -.870137393}
        tangentMode: -1092397732
      - time: .283333361
        value: {x: .936606228, y: -.251049191, z: .0629038513, w: -.236190945}
        inSlope: {x: -.407909989, y: -.713914931, z: -.0352865532, w: -.868496776}
        outSlope: {x: -.407909989, y: -.713914931, z: -.0352865532, w: -.868496776}
        tangentMode: -1097265898
      - time: .300000042
        value: {x: .929669738, y: -.26275292, z: .0620553903, w: -.250647455}
        inSlope: {x: -.423974633, y: -.690340161, z: -.06652309, w: -.865706384}
        outSlope: {x: -.423974633, y: -.690340161, z: -.06652309, w: -.865706384}
        tangentMode: 1063395871
      - time: .316666722
        value: {x: .922473729, y: -.274060547, z: .0606864132, w: -.265047848}
        inSlope: {x: -.439061165, y: -.666394293, z: -.0977143571, w: -.861763537}
        outSlope: {x: -.439061165, y: -.666394293, z: -.0977143571, w: -.861763537}
        tangentMode: 0
      - time: .333333403
        value: {x: .915034354, y: -.284966081, z: .0587982424, w: -.279372931}
        inSlope: {x: -.453160644, y: -.642127454, z: -.12882103, w: -.856670916}
        outSlope: {x: -.453160644, y: -.642127454, z: -.12882103, w: -.856670916}
        tangentMode: -1092909322
      - time: .350000083
        value: {x: .907368362, y: -.295464814, z: .0563923754, w: -.293603569}
        inSlope: {x: -.46625337, y: -.617576361, z: -.159799621, w: -.850428522}
        outSlope: {x: -.46625337, y: -.617576361, z: -.159799621, w: -.850428522}
        tangentMode: 595
      - time: .366666764
        value: {x: .899492562, y: -.305551976, z: .0534715839, w: -.307720572}
        inSlope: {x: -.478346527, y: -.592780232, z: -.190609127, w: -.843037248}
        outSlope: {x: -.478346527, y: -.592780232, z: -.190609127, w: -.843037248}
        tangentMode: 1108
      - time: .383333445
        value: {x: .891423464, y: -.315224171, z: .0500387326, w: -.321704835}
        inSlope: {x: -.489431202, y: -.567782044, z: -.221210748, w: -.834505141}
        outSlope: {x: -.489431202, y: -.567782044, z: -.221210748, w: -.834505141}
        tangentMode: 1094
      - time: .400000125
        value: {x: .883178174, y: -.32447806, z: .0460978858, w: -.335537434}
        inSlope: {x: -.499503791, y: -.542605996, z: -.251549423, w: -.824840307}
        outSlope: {x: -.499503791, y: -.542605996, z: -.251549423, w: -.824840307}
        tangentMode: 4569
      - time: .416666806
        value: {x: .874773324, y: -.333311051, z: .0416537449, w: -.349199533}
        inSlope: {x: -.508566082, y: -.517305613, z: -.281598091, w: -.814046204}
        outSlope: {x: -.508566082, y: -.517305613, z: -.281598091, w: -.814046204}
        tangentMode: 4586
      - time: .433333486
        value: {x: .866225958, y: -.341721594, z: .0367112756, w: -.362672329}
        inSlope: {x: -.516612709, y: -.491915822, z: -.31131044, w: -.802135408}
        outSlope: {x: -.516612709, y: -.491915822, z: -.31131044, w: -.802135408}
        tangentMode: 2996
      - time: .450000167
        value: {x: .857552886, y: -.349708259, z: .0312767215, w: -.375937402}
        inSlope: {x: -.523650825, y: -.466474205, z: -.340643704, w: -.789116859}
        outSlope: {x: -.523650825, y: -.466474205, z: -.340643704, w: -.789116859}
        tangentMode: 4572
      - time: .466666847
        value: {x: .848770916, y: -.357270747, z: .0253564753, w: -.388976246}
        inSlope: {x: -.529678643, y: -.441025436, z: -.369562566, w: -.775001287}
        outSlope: {x: -.529678643, y: -.441025436, z: -.369562566, w: -.775001287}
        tangentMode: 3602
      - time: .483333528
        value: {x: .839896917, y: -.364409119, z: .0189579595, w: -.4017708}
        inSlope: {x: -.534704864, y: -.41559884, z: -.398016423, w: -.759806812}
        outSlope: {x: -.534704864, y: -.41559884, z: -.398016423, w: -.759806812}
        tangentMode: 3607
      - time: .5
        value: {x: .830947518, y: -.37112397, z: .0120893363, w: -.414303005}
        inSlope: {x: -.536970198, y: -.402895749, z: -.41212222, w: -.751941025}
        outSlope: {x: -.536970198, y: -.402895749, z: -.41212222, w: -.751941025}
        tangentMode: 3609
      m_PreInfinity: 2
      m_PostInfinity: 2
    path: 
  m_CompressedRotationCurves: []
  m_PositionCurves:
  - curve:
      serializedVersion: 2
      m_Curve:
      - time: 0
        value: {x: -.529999971, y: .342999995, z: 1.01100004}
        inSlope: {x: 0, y: 5.96046448e-08, z: 2.38418579e-07}
        outSlope: {x: 0, y: 5.96046448e-08, z: 2.38418579e-07}
        tangentMode: 0
      - time: .5
        value: {x: -.529999971, y: .343000025, z: 1.01100016}
        inSlope: {x: 0, y: 5.96046448e-08, z: 2.38418579e-07}
        outSlope: {x: 0, y: 5.96046448e-08, z: 2.38418579e-07}
        tangentMode: 112954208
      m_PreInfinity: 2
      m_PostInfinity: 2
    path: 
  m_ScaleCurves: []
  m_FloatCurves: []
  m_PPtrCurves: []
  m_SampleRate: 60
  m_WrapMode: 0
  m_Bounds:
    m_Center: {x: 0, y: 0, z: 0}
    m_Extent: {x: 0, y: 0, z: 0}
  m_ClipBindingConstant:
    genericBindings:
    - path: 0
      attribute: 2
      script: {fileID: 0}
      classID: 4
      customType: 0
      isPPtrCurve: 0
    - path: 0
      attribute: 1
      script: {fileID: 0}
      classID: 4
      customType: 0
      isPPtrCurve: 0
    pptrCurveMapping: []
  m_AnimationClipSettings:
    serializedVersion: 2
    m_StartTime: 0
    m_StopTime: .5
    m_OrientationOffsetY: 0
    m_Level: 0
    m_CycleOffset: 0
    m_LoopTime: 0
    m_LoopBlend: 0
    m_LoopBlendOrientation: 0
    m_LoopBlendPositionY: 0
    m_LoopBlendPositionXZ: 0
    m_KeepOriginalOrientation: 0
    m_KeepOriginalPositionY: 1
    m_KeepOriginalPositionXZ: 0
    m_HeightFromFeet: 0
    m_Mirror: 0
  m_EditorCurves:
  - curve:
      serializedVersion: 2
      m_Curve:
      - time: 0
        value: 1.01100004
        inSlope: 2.38418579e-07
        outSlope: 2.38418579e-07
        tangentMode: 10
      - time: .5
        value: 1.01100016
        inSlope: 2.38418579e-07
        outSlope: 2.38418579e-07
        tangentMode: 10
      m_PreInfinity: 2
      m_PostInfinity: 2
    attribute: m_LocalPosition.z
    path: 
    classID: 4
    script: {fileID: 0}
  - curve:
      serializedVersion: 2
      m_Curve:
      - time: 0
        value: .342999995
        inSlope: 5.96046448e-08
        outSlope: 5.96046448e-08
        tangentMode: 10
      - time: .5
        value: .343000025
        inSlope: 5.96046448e-08
        outSlope: 5.96046448e-08
        tangentMode: 10
      m_PreInfinity: 2
      m_PostInfinity: 2
    attribute: m_LocalPosition.y
    path: 
    classID: 4
    script: {fileID: 0}
  - curve:
      serializedVersion: 2
      m_Curve:
      - time: 0
        value: -.529999971
        inSlope: 0
        outSlope: 0
        tangentMode: 10
      - time: .5
        value: -.529999971
        inSlope: 0
        outSlope: 0
        tangentMode: 10
      m_PreInfinity: 2
      m_PostInfinity: 2
    attribute: m_LocalPosition.x
    path: 
    classID: 4
    script: {fileID: 0}
  - curve:
      serializedVersion: 2
      m_Curve:
      - time: 0
        value: 1
        inSlope: -.0150811663
        outSlope: -.0150811663
        tangentMode: 0
      - time: .0166666675
        value: .999748647
        inSlope: -.0299584847
        outSlope: -.0299584847
        tangentMode: 0
      - time: .0333333351
        value: .999001384
        inSlope: -.059394829
        outSlope: -.059394829
        tangentMode: 0
      - time: .0500000045
        value: .997768819
        inSlope: -.0881749392
        outSlope: -.0881749392
        tangentMode: 0
      - time: .0666666701
        value: .996062219
        inSlope: -.116273776
        outSlope: -.116273776
        tangentMode: 0
      - time: .0833333358
        value: .993893027
        inSlope: -.143662706
        outSlope: -.143662706
        tangentMode: 0
      - time: .100000001
        value: .991273463
        inSlope: -.170305982
        outSlope: -.170305982
        tangentMode: 0
      - time: .116666667
        value: .988216162
        inSlope: -.19618389
        outSlope: -.19618389
        tangentMode: 0
      - time: .13333334
        value: .984733999
        inSlope: -.221273273
        outSlope: -.221273273
        tangentMode: 0
      - time: .150000006
        value: .980840385
        inSlope: -.245549113
        outSlope: -.245549113
        tangentMode: 0
      - time: .166666672
        value: .976549029
        inSlope: -.268982679
        outSlope: -.268982679
        tangentMode: 0
      - time: .183333337
        value: .971874297
        inSlope: -.291554362
        outSlope: -.291554362
        tangentMode: 0
      - time: .200000003
        value: .966830552
        inSlope: -.313251644
        outSlope: -.313251644
        tangentMode: 0
      - time: .216666669
        value: .961432576
        inSlope: -.334042341
        outSlope: -.334042341
        tangentMode: 0
      - time: .233333334
        value: .955695808
        inSlope: -.353921086
        outSlope: -.353921086
        tangentMode: 0
      - time: .25
        value: .949635208
        inSlope: -.372871608
        outSlope: -.372871608
        tangentMode: 0
      - time: .266666681
        value: .943266749
        inSlope: -.390869051
        outSlope: -.390869051
        tangentMode: 0
      - time: .283333361
        value: .936606228
        inSlope: -.407909989
        outSlope: -.407909989
        tangentMode: 0
      - time: .300000042
        value: .929669738
        inSlope: -.423974633
        outSlope: -.423974633
        tangentMode: 0
      - time: .316666722
        value: .922473729
        inSlope: -.439061165
        outSlope: -.439061165
        tangentMode: 0
      - time: .333333403
        value: .915034354
        inSlope: -.453160644
        outSlope: -.453160644
        tangentMode: 0
      - time: .350000083
        value: .907368362
        inSlope: -.46625337
        outSlope: -.46625337
        tangentMode: 0
      - time: .366666764
        value: .899492562
        inSlope: -.478346527
        outSlope: -.478346527
        tangentMode: 0
      - time: .383333445
        value: .891423464
        inSlope: -.489431202
        outSlope: -.489431202
        tangentMode: 0
      - time: .400000125
        value: .883178174
        inSlope: -.499503791
        outSlope: -.499503791
        tangentMode: 0
      - time: .416666806
        value: .874773324
        inSlope: -.508566082
        outSlope: -.508566082
        tangentMode: 0
      - time: .433333486
        value: .866225958
        inSlope: -.516612709
        outSlope: -.516612709
        tangentMode: 0
      - time: .450000167
        value: .857552886
        inSlope: -.523650825
        outSlope: -.523650825
        tangentMode: 0
      - time: .466666847
        value: .848770916
        inSlope: -.529678643
        outSlope: -.529678643
        tangentMode: 0
      - time: .483333528
        value: .839896917
        inSlope: -.534704864
        outSlope: -.534704864
        tangentMode: 0
      - time: .5
        value: .830947518
        inSlope: -.536970198
        outSlope: -.536970198
        tangentMode: 0
      m_PreInfinity: 2
      m_PostInfinity: 2
    attribute: m_LocalRotation.x
    path: 
    classID: 4
    script: {fileID: 0}
  - curve:
      serializedVersion: 2
      m_Curve:
      - time: 0
        value: 4.37113883e-08
        inSlope: -1.01842308
        outSlope: -1.01842308
        tangentMode: 0
      - time: .0166666675
        value: -.0169736762
        inSlope: -1.01217639
        outSlope: -1.01217639
        tangentMode: 0
      - time: .0333333351
        value: -.0337391719
        inSlope: -.99924475
        outSlope: -.99924475
        tangentMode: 0
      - time: .0500000045
        value: -.0502818376
        inSlope: -.985408008
        outSlope: -.985408008
        tangentMode: 0
      - time: .0666666701
        value: -.066586107
        inSlope: -.970693946
        outSlope: -.970693946
        tangentMode: 0
      - time: .0833333358
        value: -.082638301
        inSlope: -.955131054
        outSlope: -.955131054
        tangentMode: 0
      - time: .100000001
        value: -.0984238088
        inSlope: -.938749909
        outSlope: -.938749909
        tangentMode: 0
      - time: .116666667
        value: -.113929965
        inSlope: -.921580493
        outSlope: -.921580493
        tangentMode: 0
      - time: .13333334
        value: -.129143164
        inSlope: -.903655529
        outSlope: -.903655529
        tangentMode: 0
      - time: .150000006
        value: -.14405182
        inSlope: -.885006547
        outSlope: -.885006547
        tangentMode: 0
      - time: .166666672
        value: -.15864338
        inSlope: -.865667343
        outSlope: -.865667343
        tangentMode: 0
      - time: .183333337
        value: -.172907397
        inSlope: -.845672369
        outSlope: -.845672369
        tangentMode: 0
      - time: .200000003
        value: -.186832458
        inSlope: -.825055599
        outSlope: -.825055599
        tangentMode: 0
      - time: .216666669
        value: -.200409248
        inSlope: -.803854525
        outSlope: -.803854525
        tangentMode: 0
      - time: .233333334
        value: -.213627607
        inSlope: -.782102227
        outSlope: -.782102227
        tangentMode: 0
      - time: .25
        value: -.226479322
        inSlope: -.759843588
        outSlope: -.759843588
        tangentMode: 0
      - time: .266666681
        value: -.238955736
        inSlope: -.737095475
        outSlope: -.737095475
        tangentMode: 0
      - time: .283333361
        value: -.251049191
        inSlope: -.713914931
        outSlope: -.713914931
        tangentMode: 0
      - time: .300000042
        value: -.26275292
        inSlope: -.690340161
        outSlope: -.690340161
        tangentMode: 0
      - time: .316666722
        value: -.274060547
        inSlope: -.666394293
        outSlope: -.666394293
        tangentMode: 0
      - time: .333333403
        value: -.284966081
        inSlope: -.642127454
        outSlope: -.642127454
        tangentMode: 0
      - time: .350000083
        value: -.295464814
        inSlope: -.617576361
        outSlope: -.617576361
        tangentMode: 0
      - time: .366666764
        value: -.305551976
        inSlope: -.592780232
        outSlope: -.592780232
        tangentMode: 0
      - time: .383333445
        value: -.315224171
        inSlope: -.567782044
        outSlope: -.567782044
        tangentMode: 0
      - time: .400000125
        value: -.32447806
        inSlope: -.542605996
        outSlope: -.542605996
        tangentMode: 0
      - time: .416666806
        value: -.333311051
        inSlope: -.517305613
        outSlope: -.517305613
        tangentMode: 0
      - time: .433333486
        value: -.341721594
        inSlope: -.491915822
        outSlope: -.491915822
        tangentMode: 0
      - time: .450000167
        value: -.349708259
        inSlope: -.466474205
        outSlope: -.466474205
        tangentMode: 0
      - time: .466666847
        value: -.357270747
        inSlope: -.441025436
        outSlope: -.441025436
        tangentMode: 0
      - time: .483333528
        value: -.364409119
        inSlope: -.41559884
        outSlope: -.41559884
        tangentMode: 0
      - time: .5
        value: -.37112397
        inSlope: -.402895749
        outSlope: -.402895749
        tangentMode: 0
      m_PreInfinity: 2
      m_PostInfinity: 2
    attribute: m_LocalRotation.y
    path: 
    classID: 4
    script: {fileID: 0}
  - curve:
      serializedVersion: 2
      m_Curve:
      - time: 0
        value: 4.37113883e-08
        inSlope: .450051129
        outSlope: .450051129
        tangentMode: 0
      - time: .0166666675
        value: .00750089623
        inSlope: .436981231
        outSlope: .436981231
        tangentMode: 0
      - time: .0333333351
        value: .0145660853
        inSlope: .41054529
        outSlope: .41054529
        tangentMode: 0
      - time: .0500000045
        value: .0211857408
        inSlope: .383524388
        outSlope: .383524388
        tangentMode: 0
      - time: .0666666701
        value: .027350232
        inSlope: .355952203
        outSlope: .355952203
        tangentMode: 0
      - time: .0833333358
        value: .0330508128
        inSlope: .327874839
        outSlope: .327874839
        tangentMode: 0
      - time: .100000001
        value: .0382793918
        inSlope: .299317449
        outSlope: .299317449
        tangentMode: 0
      - time: .116666667
        value: .0430280603
        inSlope: .270317435
        outSlope: .270317435
        tangentMode: 0
      - time: .13333334
        value: .047289975
        inSlope: .240921676
        outSlope: .240921676
        tangentMode: 0
      - time: .150000006
        value: .0510587841
        inSlope: .211159155
        outSlope: .211159155
        tangentMode: 0
      - time: .166666672
        value: .054328613
        inSlope: .181067348
        outSlope: .181067348
        tangentMode: 0
      - time: .183333337
        value: .0570943616
        inSlope: .150696695
        outSlope: .150696695
        tangentMode: 0
      - time: .200000003
        value: .0593518354
        inSlope: .120076925
        outSlope: .120076925
        tangentMode: 0
      - time: .216666669
        value: .0610969253
        inSlope: .0892481655
        outSlope: .0892481655
        tangentMode: 0
      - time: .233333334
        value: .062326774
        inSlope: .0582608283
        outSlope: .0582608283
        tangentMode: 0
      - time: .25
        value: .0630389526
        inSlope: .0271450691
        outSlope: .0271450691
        tangentMode: 0
      - time: .266666681
        value: .0632316098
        inSlope: -.00405303761
        outSlope: -.00405303761
        tangentMode: 0
      - time: .283333361
        value: .0629038513
        inSlope: -.0352865532
        outSlope: -.0352865532
        tangentMode: 0
      - time: .300000042
        value: .0620553903
        inSlope: -.06652309
        outSlope: -.06652309
        tangentMode: 0
      - time: .316666722
        value: .0606864132
        inSlope: -.0977143571
        outSlope: -.0977143571
        tangentMode: 0
      - time: .333333403
        value: .0587982424
        inSlope: -.12882103
        outSlope: -.12882103
        tangentMode: 0
      - time: .350000083
        value: .0563923754
        inSlope: -.159799621
        outSlope: -.159799621
        tangentMode: 0
      - time: .366666764
        value: .0534715839
        inSlope: -.190609127
        outSlope: -.190609127
        tangentMode: 0
      - time: .383333445
        value: .0500387326
        inSlope: -.221210748
        outSlope: -.221210748
        tangentMode: 0
      - time: .400000125
        value: .0460978858
        inSlope: -.251549423
        outSlope: -.251549423
        tangentMode: 0
      - time: .416666806
        value: .0416537449
        inSlope: -.281598091
        outSlope: -.281598091
        tangentMode: 0
      - time: .433333486
        value: .0367112756
        inSlope: -.31131044
        outSlope: -.31131044
        tangentMode: 0
      - time: .450000167
        value: .0312767215
        inSlope: -.340643704
        outSlope: -.340643704
        tangentMode: 0
      - time: .466666847
        value: .0253564753
        inSlope: -.369562566
        outSlope: -.369562566
        tangentMode: 0
      - time: .483333528
        value: .0189579595
        inSlope: -.398016423
        outSlope: -.398016423
        tangentMode: 0
      - time: .5
        value: .0120893363
        inSlope: -.41212222
        outSlope: -.41212222
        tangentMode: 0
      m_PreInfinity: 2
      m_PostInfinity: 2
    attribute: m_LocalRotation.z
    path: 
    classID: 4
    script: {fileID: 0}
  - curve:
      serializedVersion: 2
      m_Curve:
      - time: 0
        value: 1.91068547e-15
        inSlope: -.75490731
        outSlope: -.75490731
        tangentMode: 0
      - time: .0166666675
        value: -.0125817889
        inSlope: -.762351513
        outSlope: -.762351513
        tangentMode: 0
      - time: .0333333351
        value: -.0254117195
        inSlope: -.776770413
        outSlope: -.776770413
        tangentMode: 0
      - time: .0500000045
        value: -.0384741388
        inSlope: -.790237665
        outSlope: -.790237665
        tangentMode: 0
      - time: .0666666701
        value: -.0517529771
        inSlope: -.802730322
        outSlope: -.802730322
        tangentMode: 0
      - time: .0833333358
        value: -.065231815
        inSlope: -.814227462
        outSlope: -.814227462
        tangentMode: 0
      - time: .100000001
        value: -.0788938925
        inSlope: -.824708462
        outSlope: -.824708462
        tangentMode: 0
      - time: .116666667
        value: -.0927220955
        inSlope: -.834153473
        outSlope: -.834153473
        tangentMode: 0
      - time: .13333334
        value: -.106699012
        inSlope: -.842546344
        outSlope: -.842546344
        tangentMode: 0
      - time: .150000006
        value: -.120806977
        inSlope: -.849870265
        outSlope: -.849870265
        tangentMode: 0
      - time: .166666672
        value: -.13502802
        inSlope: -.856110215
        outSlope: -.856110215
        tangentMode: 0
      - time: .183333337
        value: -.149343982
        inSlope: -.861253381
        outSlope: -.861253381
        tangentMode: 0
      - time: .200000003
        value: -.163736463
        inSlope: -.865286052
        outSlope: -.865286052
        tangentMode: 0
      - time: .216666669
        value: -.178186849
        inSlope: -.868198931
        outSlope: -.868198931
        tangentMode: 0
      - time: .233333334
        value: -.192676425
        inSlope: -.869984865
        outSlope: -.869984865
        tangentMode: 0
      - time: .25
        value: -.207186341
        inSlope: -.870633125
        outSlope: -.870633125
        tangentMode: 0
      - time: .266666681
        value: -.221697539
        inSlope: -.870137393
        outSlope: -.870137393
        tangentMode: 0
      - time: .283333361
        value: -.236190945
        inSlope: -.868496776
        outSlope: -.868496776
        tangentMode: 0
      - time: .300000042
        value: -.250647455
        inSlope: -.865706384
        outSlope: -.865706384
        tangentMode: 0
      - time: .316666722
        value: -.265047848
        inSlope: -.861763537
        outSlope: -.861763537
        tangentMode: 0
      - time: .333333403
        value: -.279372931
        inSlope: -.856670916
        outSlope: -.856670916
        tangentMode: 0
      - time: .350000083
        value: -.293603569
        inSlope: -.850428522
        outSlope: -.850428522
        tangentMode: 0
      - time: .366666764
        value: -.307720572
        inSlope: -.843037248
        outSlope: -.843037248
        tangentMode: 0
      - time: .383333445
        value: -.321704835
        inSlope: -.834505141
        outSlope: -.834505141
        tangentMode: 0
      - time: .400000125
        value: -.335537434
        inSlope: -.824840307
        outSlope: -.824840307
        tangentMode: 0
      - time: .416666806
        value: -.349199533
        inSlope: -.814046204
        outSlope: -.814046204
        tangentMode: 0
      - time: .433333486
        value: -.362672329
        inSlope: -.802135408
        outSlope: -.802135408
        tangentMode: 0
      - time: .450000167
        value: -.375937402
        inSlope: -.789116859
        outSlope: -.789116859
        tangentMode: 0
      - time: .466666847
        value: -.388976246
        inSlope: -.775001287
        outSlope: -.775001287
        tangentMode: 0
      - time: .483333528
        value: -.4017708
        inSlope: -.759806812
        outSlope: -.759806812
        tangentMode: 0
      - time: .5
        value: -.414303005
        inSlope: -.751941025
        outSlope: -.751941025
        tangentMode: 0
      m_PreInfinity: 2
      m_PostInfinity: 2
    attribute: m_LocalRotation.w
    path: 
    classID: 4
    script: {fileID: 0}
  m_EulerEditorCurves:
  - curve:
      serializedVersion: 2
      m_Curve:
      - time: 0
        value: 0
        inSlope: -85.6177368
        outSlope: -85.6177368
        tangentMode: 10
      - time: .5
        value: -42.8088684
        inSlope: -85.6177368
        outSlope: -85.6177368
        tangentMode: 10
      m_PreInfinity: 2
      m_PostInfinity: 2
    attribute: localEulerAnglesBaked.x
    path: 
    classID: 4
    script: {fileID: 0}
  - curve:
      serializedVersion: 2
      m_Curve:
      - time: 0
        value: -180
        inSlope: -53.0462646
        outSlope: -53.0462646
        tangentMode: 10
      - time: .5
        value: -206.523132
        inSlope: -53.0462646
        outSlope: -53.0462646
        tangentMode: 10
      m_PreInfinity: 2
      m_PostInfinity: 2
    attribute: localEulerAnglesBaked.y
    path: 
    classID: 4
    script: {fileID: 0}
  - curve:
      serializedVersion: 2
      m_Curve:
      - time: 0
        value: -180
        inSlope: 117.380249
        outSlope: 117.380249
        tangentMode: 10
      - time: .5
        value: -121.309875
        inSlope: 117.380249
        outSlope: 117.380249
        tangentMode: 10
      m_PreInfinity: 2
      m_PostInfinity: 2
    attribute: localEulerAnglesBaked.z
    path: 
    classID: 4
    script: {fileID: 0}
  m_Events: []
